<svg width="312" height="489" viewBox="0 0 312 489" fill="none" xmlns="http://www.w3.org/2000/svg">
<path d="M155.06 427.7C168.359 427.7 179.14 423.16 179.14 417.56C179.14 411.96 168.359 407.42 155.06 407.42C141.761 407.42 130.98 411.96 130.98 417.56C130.98 423.16 141.761 427.7 155.06 427.7Z" fill="#262626"/>
<path d="M155.29 415.66C170.737 415.66 183.26 410.386 183.26 403.88C183.26 397.374 170.737 392.1 155.29 392.1C139.842 392.1 127.32 397.374 127.32 403.88C127.32 410.386 139.842 415.66 155.29 415.66Z" fill="#D9D9D9"/>
<path d="M154.75 408.18C185.65 408.18 210.7 397.632 210.7 384.62C210.7 371.608 185.65 361.06 154.75 361.06C123.849 361.06 98.7998 371.608 98.7998 384.62C98.7998 397.632 123.849 408.18 154.75 408.18Z" fill="#262626"/>
<path d="M131.36 420.14C131.36 420.14 143.36 460.07 155.09 460.07C166.82 460.07 178.88 420.2 178.88 420.2L131.36 420.14Z" fill="#262626"/>
<path d="M157.19 394.68C198.009 394.68 231.1 380.747 231.1 363.56C231.1 346.373 198.009 332.44 157.19 332.44C116.37 332.44 83.2798 346.373 83.2798 363.56C83.2798 380.747 116.37 394.68 157.19 394.68Z" fill="#66676B"/>
<path d="M155.26 187.7C170.707 187.7 183.23 182.426 183.23 175.92C183.23 169.414 170.707 164.14 155.26 164.14C139.813 164.14 127.29 169.414 127.29 175.92C127.29 182.426 139.813 187.7 155.26 187.7Z" fill="#D9D9D9"/>
<path d="M155.03 174.97C168.329 174.97 179.11 170.43 179.11 164.83C179.11 159.23 168.329 154.69 155.03 154.69C141.731 154.69 130.95 159.23 130.95 164.83C130.95 170.43 141.731 174.97 155.03 174.97Z" fill="#262626"/>
<path d="M155.26 162.92C170.707 162.92 183.23 157.646 183.23 151.14C183.23 144.634 170.707 139.36 155.26 139.36C139.813 139.36 127.29 144.634 127.29 151.14C127.29 157.646 139.813 162.92 155.26 162.92Z" fill="#66676B"/>
<path d="M154.72 155.44C185.62 155.44 210.67 144.892 210.67 131.88C210.67 118.868 185.62 108.32 154.72 108.32C123.82 108.32 98.77 118.868 98.77 131.88C98.77 144.892 123.82 155.44 154.72 155.44Z" fill="#262626"/>
<path opacity="0.11" d="M154.78 488.27C171.868 488.27 185.72 483.99 185.72 478.71C185.72 473.43 171.868 469.15 154.78 469.15C137.692 469.15 123.84 473.43 123.84 478.71C123.84 483.99 137.692 488.27 154.78 488.27Z" fill="#262626"/>
<path d="M227.07 3.14H88.5801C51.5991 3.14 21.6201 33.1168 21.6201 70.095C21.6201 107.073 51.5991 137.05 88.5801 137.05H227.07C264.051 137.05 294.03 107.073 294.03 70.095C294.03 33.1168 264.051 3.14 227.07 3.14Z" fill="#D9D9D9" stroke="#66676B" stroke-width="6" stroke-miterlimit="10"/>
<path d="M228.56 120.77C256.964 120.77 279.99 97.744 279.99 69.34C279.99 40.936 256.964 17.91 228.56 17.91C200.156 17.91 177.13 40.936 177.13 69.34C177.13 97.744 200.156 120.77 228.56 120.77Z" fill="#262626" stroke="#1D1D1B" stroke-width="7" stroke-miterlimit="10"/>
<path d="M228.26 95.06C242.299 95.06 253.68 83.6791 253.68 69.64C253.68 55.6009 242.299 44.22 228.26 44.22C214.221 44.22 202.84 55.6009 202.84 69.64C202.84 83.6791 214.221 95.06 228.26 95.06Z" fill="black"/>
<path d="M237.92 45.51C237.92 45.51 248.38 50.99 251.67 59.42C259.537 60.3179 267.467 60.5254 275.37 60.04C274.45 54.68 269.37 37.04 249.23 26.4C250.39 44.43 237.92 45.51 237.92 45.51Z" fill="#878787"/>
<path d="M214.68 91.68C214.68 91.68 206.58 86.79 204.37 79.28C194.93 78.14 184.37 76.7 181.66 76.7C182.58 87.25 189.46 102.23 207.18 112.01C206 94.29 214.68 91.68 214.68 91.68Z" fill="#878787"/>
<path opacity="0.7" d="M227.99 71.99C229.448 71.99 230.63 70.808 230.63 69.35C230.63 67.892 229.448 66.71 227.99 66.71C226.532 66.71 225.35 67.892 225.35 69.35C225.35 70.808 226.532 71.99 227.99 71.99Z" fill="white"/>
<path d="M88.8699 120.78C117.274 120.78 140.3 97.754 140.3 69.35C140.3 40.946 117.274 17.92 88.8699 17.92C60.4659 17.92 37.4399 40.946 37.4399 69.35C37.4399 97.754 60.4659 120.78 88.8699 120.78Z" fill="#262626" stroke="#1D1D1B" stroke-width="7" stroke-miterlimit="10"/>
<path d="M88.5699 95.06C102.609 95.06 113.99 83.6791 113.99 69.64C113.99 55.6009 102.609 44.22 88.5699 44.22C74.5308 44.22 63.1499 55.6009 63.1499 69.64C63.1499 83.6791 74.5308 95.06 88.5699 95.06Z" fill="black"/>
<path d="M88.1601 93.71C92.3464 93.71 95.7401 92.7787 95.7401 91.63C95.7401 90.4812 92.3464 89.55 88.1601 89.55C83.9738 89.55 80.5801 90.4812 80.5801 91.63C80.5801 92.7787 83.9738 93.71 88.1601 93.71Z" fill="#ADADAD"/>
<path d="M114.09 71.46C113.86 74.1 113.75 80.18 106.59 88.09C107.1 90.84 111.23 107.69 112.49 110.9C115.58 109.9 132.66 98.28 136.28 75.77C119.59 82.66 114.09 69.05 114.09 71.46Z" fill="#878787"/>
<path d="M63.2999 64.81C63.2999 64.81 65.4599 53.98 73.3899 48.88C70.7599 40.28 66.7399 29.73 65.9399 27.67C60.7799 29.73 44.0399 41.88 41.6299 63.27C57.9999 56.49 63.2999 64.81 63.2999 64.81Z" fill="#878787"/>
<path opacity="0.7" d="M88.2997 71.99C89.7577 71.99 90.9397 70.808 90.9397 69.35C90.9397 67.892 89.7577 66.71 88.2997 66.71C86.8416 66.71 85.6597 67.892 85.6597 69.35C85.6597 70.808 86.8416 71.99 88.2997 71.99Z" fill="white"/>
<path d="M229.6 93.19C233.786 93.19 237.18 92.2588 237.18 91.11C237.18 89.9612 233.786 89.03 229.6 89.03C225.414 89.03 222.02 89.9612 222.02 91.11C222.02 92.2588 225.414 93.19 229.6 93.19Z" fill="#ADADAD"/>
<path d="M14.5301 60.91C14.5301 60.91 6.79011 59.02 6.36011 53.91C3.72011 54.37 1.7301 51.28 1.7601 49.77C1.7901 48.26 2.6501 32.58 7.9201 29.97C14.3301 31.47 -1.07989 56.29 11.1901 48.11C9.34011 45.3 15.5101 28.57 21.7401 27.34C26.6501 27.98 16.8501 42.23 16.3301 43.51C15.8101 44.79 16.7001 47.16 17.5001 47.08C20.3701 45.66 26.8601 53.08 29.0501 49.08C29.3801 48.26 26.1801 30.71 29.6601 30.82C33.6001 29.61 37.6601 55.5 27.2301 55.39C27.2301 55.46 24.8101 63.43 14.5301 60.91Z" fill="#262626"/>
<path d="M50.8899 224.64C-13.5201 213.39 -1.18011 121.42 7.09989 62.31C8.43989 55.79 10.6899 53.2 16.7299 53.77C22.0999 54.27 24.5399 57.11 24.2099 62.91C25.1199 119.55 5.88988 176.06 44.3599 202.45C47.5699 209.22 70.0499 222.83 50.8899 224.64Z" fill="#66676B"/>
<path d="M36.8998 202.51C31.2598 223.34 15.3798 219.09 20.8998 198.22C26.4198 177.35 42.4298 181.64 36.8998 202.51Z" fill="#262626"/>
<path d="M297.27 61.4C297.27 61.4 305.01 59.51 305.44 54.4C308.07 54.86 310.07 51.77 310.04 50.26C310.01 48.75 309.15 33.07 303.88 30.46C297.46 31.96 312.88 56.78 300.61 48.6C302.46 45.79 296.29 29.06 290.06 27.84C285.15 28.47 294.95 42.72 295.47 44.01C295.99 45.3 295.09 47.66 294.3 47.58C291.43 46.16 284.94 53.58 282.75 49.58C282.42 48.75 285.62 31.2 282.14 31.31C278.2 30.11 274.14 55.99 284.57 55.89C284.57 56 287 63.92 297.27 61.4Z" fill="#262626"/>
<path d="M260.91 225.13C325.32 213.88 313 121.91 304.7 62.8C303.36 56.28 301.11 53.7 295.06 54.26C289.7 54.76 287.25 57.6 287.59 63.41C286.68 120.05 305.91 176.55 267.44 202.94C264.22 209.71 241.75 223.33 260.91 225.13Z" fill="#66676B"/>
<path d="M274.9 203C280.54 223.84 296.42 219.58 290.9 198.72C285.38 177.86 269.37 182.13 274.9 203Z" fill="#262626"/>
<path d="M235.94 377.22C235.94 377.22 96.2999 377.9 79.7899 377.9C63.2799 377.9 56.2699 351.08 56.2699 351.08C56.2699 351.08 30.5899 239.87 27.1799 221.76C23.7699 203.65 28.7599 175.49 59.2699 175.49H256.27C285.78 175.49 287.16 205.25 282.34 226.58L255.3 354.75C255.3 354.75 251.07 377.22 235.94 377.22Z" fill="#D9D9D9"/>
<path d="M223 359.17C223 359.17 104.71 359.76 90.73 359.76C76.75 359.76 70.81 337 70.81 337C70.81 337 49.06 242.8 46.18 227.46C43.3 212.12 47.52 188.26 73.36 188.26H240.27C265.27 188.26 266.43 213.47 262.35 231.54L239.35 340.11C239.35 340.11 235.83 359.17 223 359.17Z" fill="#002A33" stroke="#1D1D1B" stroke-width="3" stroke-miterlimit="10"/>
<path opacity="0.42" d="M111.34 189.61L71.21 189.84C71.21 189.84 56.21 190.28 50.05 203.06C43.89 215.84 47.62 229.52 47.62 229.52L73.62 340.06L111.34 189.61Z" fill="white"/>
</svg>
